hdl/src/myhdl/test_rs232rx.vcd
$date
    Sat Dec 31 17:05:52 2016
$end
$version
    MyHDL 0.9.0
$end
$timescale
    1ns
$end

$scope module test_rs232rx $end
$var reg 1 ! clk $end
$var reg 1 " txd $end
$var reg 1 # txReady $end
$var reg 1 $ rxValid $end
$var reg 8 % rxdata $end
$var reg 8 & toTx $end
$var reg 1 ' txValid $end
$scope module rs232rx_inst $end
$var reg 1 ( baudTick $end
$var reg 10 ) completeWord $end
$var reg 1 ! clk $end
$var reg 4 * currentBit $end
$var reg 1 " rxd $end
$var reg 1 $ rxValid $end
$var reg 8 % rxdata $end
$var real 1 + baudCnt $end
$upscope $end
$scope module rs232tx_inst $end
$var reg 1 , baudTick $end
$var reg 10 - completeWord $end
$var reg 1 ! clk $end
$var reg 4 . currentBit $end
$var reg 1 " txd $end
$var reg 1 # txReady $end
$var real 1 / baudCnt $end
$var reg 8 & toTx $end
$var reg 1 ' txValid $end
$upscope $end
$upscope $end

$enddefinitions $end
$dumpvars
0!
1"
0#
0$
b00000000 %
b10101010 &
0'
0(
b0000000000 )
b0000 *
s0x0 +
0,
b0000000000 -
b0000 .
s0x0 /
$end
#10
1!
1#
#20
0!
#30
1!
#40
0!
#50
1!
#60
0!
#70
1!
#80
0!
b11111111 &
1'
#90
1!
0#
b0001 .
b1111111110 -
0"
#100
0!
0'
#110
1!
b0001 *
s0xf +
s0x1 /
#120
0!
#130
1!
s0x2 /
s0x10 +
#140
0!
#150
1!
s0x11 +
s0x3 /
#160
0!
#170
1!
s0x4 /
s0x12 +
#180
0!
#190
1!
s0x13 +
s0x5 /
#200
0!
#210
1!
s0x6 /
s0x14 +
#220
0!
#230
1!
s0x15 +
s0x7 /
#240
0!
#250
1!
s0x8 /
s0x16 +
#260
0!
#270
1!
s0x17 +
s0x9 /
#280
0!
#290
1!
s0xa /
s0x18 +
#300
0!
#310
1!
s0x19 +
s0xb /
#320
0!
#330
1!
s0xc /
s0x1a +
#340
0!
#350
1!
s0x1b +
s0xd /
#360
0!
#370
1!
s0xe /
s0x1c +
#380
0!
#390
1!
s0x1d +
s0xf /
#400
0!
#410
1!
s0x10 /
s0x1e +
#420
0!
#430
1!
s0x0 +
1(
s0x11 /
#440
0!
#450
1!
s0x12 /
s0x1 +
0(
b0010 *
#460
0!
#470
1!
s0x2 +
s0x13 /
#480
0!
#490
1!
s0x14 /
s0x3 +
#500
0!
#510
1!
s0x4 +
s0x15 /
#520
0!
#530
1!
s0x16 /
s0x5 +
#540
0!
#550
1!
s0x6 +
s0x17 /
#560
0!
#570
1!
s0x18 /
s0x7 +
#580
0!
#590
1!
s0x8 +
s0x19 /
#600
0!
#610
1!
s0x1a /
s0x9 +
#620
0!
#630
1!
s0xa +
s0x1b /
#640
0!
#650
1!
s0x1c /
s0xb +
#660
0!
#670
1!
s0xc +
s0x1d /
#680
0!
#690
1!
s0x1e /
s0xd +
#700
0!
#710
1!
s0xe +
s0x0 /
1,
#720
0!
#730
1!
s0x1 /
0,
1"
b0010 .
s0xf +
#740
0!
#750
1!
s0x10 +
s0x2 /
#760
0!
#770
1!
s0x3 /
s0x11 +
#780
0!
#790
1!
s0x12 +
s0x4 /
#800
0!
#810
1!
s0x5 /
s0x13 +
#820
0!
#830
1!
s0x14 +
s0x6 /
#840
0!
#850
1!
s0x7 /
s0x15 +
#860
0!
#870
1!
s0x16 +
s0x8 /
#880
0!
#890
1!
s0x9 /
s0x17 +
#900
0!
#910
1!
s0x18 +
s0xa /
#920
0!
#930
1!
s0xb /
s0x19 +
#940
0!
#950
1!
s0x1a +
s0xc /
#960
0!
#970
1!
s0xd /
s0x1b +
#980
0!
#990
1!
s0x1c +
s0xe /
#1000
0!
#1010
1!
s0xf /
s0x1d +
#1020
0!
#1030
1!
s0x1e +
s0x10 /
#1040
0!
#1050
1!
s0x11 /
s0x0 +
1(
#1060
0!
#1070
1!
s0x1 +
0(
b0011 *
b00000001 %
s0x12 /
#1080
0!
#1090
1!
s0x13 /
s0x2 +
#1100
0!
#1110
1!
s0x3 +
s0x14 /
#1120
0!
#1130
1!
s0x15 /
s0x4 +
#1140
0!
#1150
1!
s0x5 +
s0x16 /
#1160
0!
#1170
1!
s0x17 /
s0x6 +
#1180
0!
#1190
1!
s0x7 +
s0x18 /
#1200
0!
#1210
1!
s0x19 /
s0x8 +
#1220
0!
#1230
1!
s0x9 +
s0x1a /
#1240
0!
#1250
1!
s0x1b /
s0xa +
#1260
0!
#1270
1!
s0xb +
s0x1c /
#1280
0!
#1290
1!
s0x1d /
s0xc +
#1300
0!
#1310
1!
s0xd +
s0x1e /
#1320
0!
#1330
1!
s0x0 /
1,
s0xe +
#1340
0!
#1350
1!
s0xf +
s0x1 /
0,
b0011 .
#1360
0!
#1370
1!
s0x2 /
s0x10 +
#1380
0!
#1390
1!
s0x11 +
s0x3 /
#1400
0!
#1410
1!
s0x4 /
s0x12 +
#1420
0!
#1430
1!
s0x13 +
s0x5 /
#1440
0!
#1450
1!
s0x6 /
s0x14 +
#1460
0!
#1470
1!
s0x15 +
s0x7 /
#1480
0!
#1490
1!
s0x8 /
s0x16 +
#1500
0!
#1510
1!
s0x17 +
s0x9 /
#1520
0!
#1530
1!
s0xa /
s0x18 +
#1540
0!
#1550
1!
s0x19 +
s0xb /
#1560
0!
#1570
1!
s0xc /
s0x1a +
#1580
0!
#1590
1!
s0x1b +
s0xd /
#1600
0!
#1610
1!
s0xe /
s0x1c +
#1620
0!
#1630
1!
s0x1d +
s0xf /
#1640
0!
#1650
1!
s0x10 /
s0x1e +
#1660
0!
#1670
1!
s0x0 +
1(
s0x11 /
#1680
0!
#1690
1!
s0x12 /
s0x1 +
0(
b0100 *
b00000011 %
#1700
0!
#1710
1!
s0x2 +
s0x13 /
#1720
0!
#1730
1!
s0x14 /
s0x3 +
#1740
0!
#1750
1!
s0x4 +
s0x15 /
#1760
0!
#1770
1!
s0x16 /
s0x5 +
#1780
0!
#1790
1!
s0x6 +
s0x17 /
#1800
0!
#1810
1!
s0x18 /
s0x7 +
#1820
0!
#1830
1!
s0x8 +
s0x19 /
#1840
0!
#1850
1!
s0x1a /
s0x9 +
#1860
0!
#1870
1!
s0xa +
s0x1b /
#1880
0!
#1890
1!
s0x1c /
s0xb +
#1900
0!
#1910
1!
s0xc +
s0x1d /
#1920
0!
#1930
1!
s0x1e /
s0xd +
#1940
0!
#1950
1!
s0xe +
s0x0 /
1,
#1960
0!
#1970
1!
s0x1 /
0,
b0100 .
s0xf +
#1980
0!
#1990
1!
s0x10 +
s0x2 /
#2000
0!
#2010
1!
s0x3 /
s0x11 +
#2020
0!
#2030
1!
s0x12 +
s0x4 /
#2040
0!
#2050
1!
s0x5 /
s0x13 +
#2060
0!
#2070
1!
s0x14 +
s0x6 /
#2080
0!
#2090
1!
s0x7 /
s0x15 +
#2100
0!
#2110
1!
s0x16 +
s0x8 /
#2120
0!
#2130
1!
s0x9 /
s0x17 +
#2140
0!
#2150
1!
s0x18 +
s0xa /
#2160
0!
#2170
1!
s0xb /
s0x19 +
#2180
0!
#2190
1!
s0x1a +
s0xc /
#2200
0!
#2210
1!
s0xd /
s0x1b +
#2220
0!
#2230
1!
s0x1c +
s0xe /
#2240
0!
#2250
1!
s0xf /
s0x1d +
#2260
0!
#2270
1!
s0x1e +
s0x10 /
#2280
0!
#2290
1!
s0x11 /
s0x0 +
1(
#2300
0!
#2310
1!
s0x1 +
0(
b0101 *
b00000111 %
s0x12 /
#2320
0!
#2330
1!
s0x13 /
s0x2 +
#2340
0!
#2350
1!
s0x3 +
s0x14 /
#2360
0!
#2370
1!
s0x15 /
s0x4 +
#2380
0!
#2390
1!
s0x5 +
s0x16 /
#2400
0!
#2410
1!
s0x17 /
s0x6 +
#2420
0!
#2430
1!
s0x7 +
s0x18 /
#2440
0!
#2450
1!
s0x19 /
s0x8 +
#2460
0!
#2470
1!
s0x9 +
s0x1a /
#2480
0!
#2490
1!
s0x1b /
s0xa +
#2500
0!
#2510
1!
s0xb +
s0x1c /
#2520
0!
#2530
1!
s0x1d /
s0xc +
#2540
0!
#2550
1!
s0xd +
s0x1e /
#2560
0!
#2570
1!
s0x0 /
1,
s0xe +
#2580
0!
#2590
1!
s0xf +
s0x1 /
0,
b0101 .
#2600
0!
#2610
1!
s0x2 /
s0x10 +
#2620
0!
#2630
1!
s0x11 +
s0x3 /
#2640
0!
#2650
1!
s0x4 /
s0x12 +
#2660
0!
#2670
1!
s0x13 +
s0x5 /
#2680
0!
#2690
1!
s0x6 /
s0x14 +
#2700
0!
#2710
1!
s0x15 +
s0x7 /
#2720
0!
#2730
1!
s0x8 /
s0x16 +
#2740
0!
#2750
1!
s0x17 +
s0x9 /
#2760
0!
#2770
1!
s0xa /
s0x18 +
#2780
0!
#2790
1!
s0x19 +
s0xb /
#2800
0!
#2810
1!
s0xc /
s0x1a +
#2820
0!
#2830
1!
s0x1b +
s0xd /
#2840
0!
#2850
1!
s0xe /
s0x1c +
#2860
0!
#2870
1!
s0x1d +
s0xf /
#2880
0!
#2890
1!
s0x10 /
s0x1e +
#2900
0!
#2910
1!
s0x0 +
1(
s0x11 /
#2920
0!
#2930
1!
s0x12 /
s0x1 +
0(
b0110 *
b00001111 %
#2940
0!
#2950
1!
s0x2 +
s0x13 /
#2960
0!
#2970
1!
s0x14 /
s0x3 +
#2980
0!
#2990
1!
s0x4 +
s0x15 /
#3000
0!
#3010
1!
s0x16 /
s0x5 +
#3020
0!
#3030
1!
s0x6 +
s0x17 /
#3040
0!
#3050
1!
s0x18 /
s0x7 +
#3060
0!
#3070
1!
s0x8 +
s0x19 /
#3080
0!
#3090
1!
s0x1a /
s0x9 +
#3100
0!
#3110
1!
s0xa +
s0x1b /
#3120
0!
#3130
1!
s0x1c /
s0xb +
#3140
0!
#3150
1!
s0xc +
s0x1d /
#3160
0!
#3170
1!
s0x1e /
s0xd +
#3180
0!
#3190
1!
s0xe +
s0x0 /
1,
#3200
0!
#3210
1!
s0x1 /
0,
b0110 .
s0xf +
#3220
0!
#3230
1!
s0x10 +
s0x2 /
#3240
0!
#3250
1!
s0x3 /
s0x11 +
#3260
0!
#3270
1!
s0x12 +
s0x4 /
#3280
0!
#3290
1!
s0x5 /
s0x13 +
#3300
0!
#3310
1!
s0x14 +
s0x6 /
#3320
0!
#3330
1!
s0x7 /
s0x15 +
#3340
0!
#3350
1!
s0x16 +
s0x8 /
#3360
0!
#3370
1!
s0x9 /
s0x17 +
#3380
0!
#3390
1!
s0x18 +
s0xa /
#3400
0!
#3410
1!
s0xb /
s0x19 +
#3420
0!
#3430
1!
s0x1a +
s0xc /
#3440
0!
#3450
1!
s0xd /
s0x1b +
#3460
0!
#3470
1!
s0x1c +
s0xe /
#3480
0!
#3490
1!
s0xf /
s0x1d +
#3500
0!
#3510
1!
s0x1e +
s0x10 /
#3520
0!
#3530
1!
s0x11 /
s0x0 +
1(
#3540
0!
#3550
1!
s0x1 +
0(
b0111 *
b00011111 %
s0x12 /
#3560
0!
#3570
1!
s0x13 /
s0x2 +
#3580
0!
#3590
1!
s0x3 +
s0x14 /
#3600
0!
#3610
1!
s0x15 /
s0x4 +
#3620
0!
#3630
1!
s0x5 +
s0x16 /
#3640
0!
#3650
1!
s0x17 /
s0x6 +
#3660
0!
#3670
1!
s0x7 +
s0x18 /
#3680
0!
#3690
1!
s0x19 /
s0x8 +
#3700
0!
#3710
1!
s0x9 +
s0x1a /
#3720
0!
#3730
1!
s0x1b /
s0xa +
#3740
0!
#3750
1!
s0xb +
s0x1c /
#3760
0!
#3770
1!
s0x1d /
s0xc +
#3780
0!
#3790
1!
s0xd +
s0x1e /
#3800
0!
#3810
1!
s0x0 /
1,
s0xe +
#3820
0!
#3830
1!
s0xf +
s0x1 /
0,
b0111 .
#3840
0!
#3850
1!
s0x2 /
s0x10 +
#3860
0!
#3870
1!
s0x11 +
s0x3 /
#3880
0!
#3890
1!
s0x4 /
s0x12 +
#3900
0!
#3910
1!
s0x13 +
s0x5 /
#3920
0!
#3930
1!
s0x6 /
s0x14 +
#3940
0!
#3950
1!
s0x15 +
s0x7 /
#3960
0!
#3970
1!
s0x8 /
s0x16 +
#3980
0!
#3990
1!
s0x17 +
s0x9 /
#4000
0!
#4010
1!
s0xa /
s0x18 +
#4020
0!
#4030
1!
s0x19 +
s0xb /
#4040
0!
#4050
1!
s0xc /
s0x1a +
#4060
0!
#4070
1!
s0x1b +
s0xd /
#4080
0!
#4090
1!
s0xe /
s0x1c +
#4100
0!
#4110
1!
s0x1d +
s0xf /
#4120
0!
#4130
1!
s0x10 /
s0x1e +
#4140
0!
#4150
1!
s0x0 +
1(
s0x11 /
#4160
0!
#4170
1!
s0x12 /
s0x1 +
0(
b1000 *
b00111111 %
#4180
0!
#4190
1!
s0x2 +
s0x13 /
#4200
0!
#4210
1!
s0x14 /
s0x3 +
#4220
0!
#4230
1!
s0x4 +
s0x15 /
#4240
0!
#4250
1!
s0x16 /
s0x5 +
#4260
0!
#4270
1!
s0x6 +
s0x17 /
#4280
0!
#4290
1!
s0x18 /
s0x7 +
#4300
0!
#4310
1!
s0x8 +
s0x19 /
#4320
0!
#4330
1!
s0x1a /
s0x9 +
#4340
0!
#4350
1!
s0xa +
s0x1b /
#4360
0!
#4370
1!
s0x1c /
s0xb +
#4380
0!
#4390
1!
s0xc +
s0x1d /
#4400
0!
#4410
1!
s0x1e /
s0xd +
#4420
0!
#4430
1!
s0xe +
s0x0 /
1,
#4440
0!
#4450
1!
s0x1 /
0,
b1000 .
s0xf +
#4460
0!
#4470
1!
s0x10 +
s0x2 /
#4480
0!
#4490
1!
s0x3 /
s0x11 +
#4500
0!
#4510
1!
s0x12 +
s0x4 /
#4520
0!
#4530
1!
s0x5 /
s0x13 +
#4540
0!
#4550
1!
s0x14 +
s0x6 /
#4560
0!
#4570
1!
s0x7 /
s0x15 +
#4580
0!
#4590
1!
s0x16 +
s0x8 /
#4600
0!
#4610
1!
s0x9 /
s0x17 +
#4620
0!
#4630
1!
s0x18 +
s0xa /
#4640
0!
#4650
1!
s0xb /
s0x19 +
#4660
0!
#4670
1!
s0x1a +
s0xc /
#4680
0!
#4690
1!
s0xd /
s0x1b +
#4700
0!
#4710
1!
s0x1c +
s0xe /
#4720
0!
#4730
1!
s0xf /
s0x1d +
#4740
0!
#4750
1!
s0x1e +
s0x10 /
#4760
0!
#4770
1!
s0x11 /
s0x0 +
1(
#4780
0!
#4790
1!
s0x1 +
0(
b1001 *
b01111111 %
s0x12 /
#4800
0!
#4810
1!
s0x13 /
s0x2 +
#4820
0!
#4830
1!
s0x3 +
s0x14 /
#4840
0!
#4850
1!
s0x15 /
s0x4 +
#4860
0!
#4870
1!
s0x5 +
s0x16 /
#4880
0!
#4890
1!
s0x17 /
s0x6 +
#4900
0!
#4910
1!
s0x7 +
s0x18 /
#4920
0!
#4930
1!
s0x19 /
s0x8 +
#4940
0!
#4950
1!
s0x9 +
s0x1a /
#4960
0!
#4970
1!
s0x1b /
s0xa +
#4980
0!
#4990
1!
s0xb +
s0x1c /
#5000
0!
#5010
1!
s0x1d /
s0xc +
#5020
0!
#5030
1!
s0xd +
s0x1e /
#5040
0!
#5050
1!
s0x0 /
1,
s0xe +
#5060
0!
#5070
1!
s0xf +
s0x1 /
0,
b1001 .
#5080
0!
#5090
1!
s0x2 /
s0x10 +
#5100
0!
#5110
1!
s0x11 +
s0x3 /
#5120
0!
#5130
1!
s0x4 /
s0x12 +
#5140
0!
#5150
1!
s0x13 +
s0x5 /
#5160
0!
#5170
1!
s0x6 /
s0x14 +
#5180
0!
#5190
1!
s0x15 +
s0x7 /
#5200
0!
#5210
1!
s0x8 /
s0x16 +
#5220
0!
#5230
1!
s0x17 +
s0x9 /
#5240
0!
#5250
1!
s0xa /
s0x18 +
#5260
0!
#5270
1!
s0x19 +
s0xb /
#5280
0!
#5290
1!
s0xc /
s0x1a +
#5300
0!
#5310
1!
s0x1b +
s0xd /
#5320
0!
#5330
1!
s0xe /
s0x1c +
#5340
0!
#5350
1!
s0x1d +
s0xf /
#5360
0!
#5370
1!
s0x10 /
s0x1e +
#5380
0!
#5390
1!
s0x0 +
1(
s0x11 /
#5400
0!
#5410
1!
s0x12 /
s0x1 +
0(
b1010 *
b11111111 %
#5420
0!
#5430
1!
s0x2 +
s0x13 /
#5440
0!
#5450
1!
s0x14 /
s0x3 +
#5460
0!
#5470
1!
s0x4 +
s0x15 /
#5480
0!
#5490
1!
s0x16 /
s0x5 +
#5500
0!
#5510
1!
s0x6 +
s0x17 /
#5520
0!
#5530
1!
s0x18 /
s0x7 +
#5540
0!
#5550
1!
s0x8 +
s0x19 /
#5560
0!
#5570
1!
s0x1a /
s0x9 +
#5580
0!
#5590
1!
s0xa +
s0x1b /
#5600
0!
#5610
1!
s0x1c /
s0xb +
#5620
0!
#5630
1!
s0xc +
s0x1d /
#5640
0!
#5650
1!
s0x1e /
s0xd +
#5660
0!
#5670
1!
s0xe +
s0x0 /
1,
#5680
0!
#5690
1!
s0x1 /
0,
b1010 .
s0xf +
#5700
0!
#5710
1!
s0x10 +
s0x2 /
#5720
0!
#5730
1!
s0x3 /
s0x11 +
#5740
0!
#5750
1!
s0x12 +
s0x4 /
#5760
0!
#5770
1!
s0x5 /
s0x13 +
#5780
0!
#5790
1!
s0x14 +
s0x6 /
#5800
0!
#5810
1!
s0x7 /
s0x15 +
#5820
0!
#5830
1!
s0x16 +
s0x8 /
#5840
0!
#5850
1!
s0x9 /
s0x17 +
#5860
0!
#5870
1!
s0x18 +
s0xa /
#5880
0!
#5890
1!
s0xb /
s0x19 +
#5900
0!
#5910
1!
s0x1a +
s0xc /
#5920
0!
#5930
1!
s0xd /
s0x1b +
#5940
0!
#5950
1!
s0x1c +
s0xe /
#5960
0!
#5970
1!
s0xf /
s0x1d +
#5980
0!
#5990
1!
s0x1e +
s0x10 /
#6000
0!
#6010
1!
s0x11 /
s0x0 +
1(
#6020
0!
#6030
1!
s0x1 +
0(
b0000 *
1$
s0x12 /
#6040
0!
#6050
1!
s0x13 /
0$
#6060
0!
#6070
1!
s0x14 /
#6080
0!
#6090
1!
s0x15 /
#6100
0!
#6110
1!
s0x16 /
#6120
0!
#6130
1!
s0x17 /
#6140
0!
#6150
1!
s0x18 /
#6160
0!
#6170
1!
s0x19 /
#6180
0!
#6190
1!
s0x1a /
#6200
0!
#6210
1!
s0x1b /
#6220
0!
#6230
1!
s0x1c /
#6240
0!
#6250
1!
s0x1d /
#6260
0!
#6270
1!
s0x1e /
#6280
0!
#6290
1!
s0x0 /
1,
#6300
0!
#6310
1!
s0x1 /
0,
b0000 .
1#
#6320
0!
b10101010 &
1'
#6330
1!
0#
b0001 .
b1101010100 -
0"
#6340
0!
0'
#6350
1!
b0001 *
s0xf +
s0x2 /
#6360
0!
#6370
1!
s0x3 /
s0x10 +
#6380
0!
#6390
1!
s0x11 +
s0x4 /
#6400
0!
#6410
1!
s0x5 /
s0x12 +
#6420
0!
#6430
1!
s0x13 +
s0x6 /
#6440
0!
#6450
1!
s0x7 /
s0x14 +
#6460
0!
#6470
1!
s0x15 +
s0x8 /
#6480
0!
#6490
1!
s0x9 /
s0x16 +
#6500
0!
#6510
1!
s0x17 +
s0xa /
#6520
0!
#6530
1!
s0xb /
s0x18 +
#6540
0!
#6550
1!
s0x19 +
s0xc /
#6560
0!
#6570
1!
s0xd /
s0x1a +
#6580
0!
#6590
1!
s0x1b +
s0xe /
#6600
0!
#6610
1!
s0xf /
s0x1c +
#6620
0!
#6630
1!
s0x1d +
s0x10 /
#6640
0!
#6650
1!
s0x11 /
s0x1e +
#6660
0!
#6670
1!
s0x0 +
1(
s0x12 /
#6680
0!
#6690
1!
s0x13 /
s0x1 +
0(
b0010 *
#6700
0!
#6710
1!
s0x2 +
s0x14 /
#6720
0!
#6730
1!
s0x15 /
s0x3 +
#6740
0!
#6750
1!
s0x4 +
s0x16 /
#6760
0!
#6770
1!
s0x17 /
s0x5 +
#6780
0!
#6790
1!
s0x6 +
s0x18 /
#6800
0!
#6810
1!
s0x19 /
s0x7 +
#6820
0!
#6830
1!
s0x8 +
s0x1a /
#6840
0!
#6850
1!
s0x1b /
s0x9 +
#6860
0!
#6870
1!
s0xa +
s0x1c /
#6880
0!
#6890
1!
s0x1d /
s0xb +
#6900
0!
#6910
1!
s0xc +
s0x1e /
#6920
0!
#6930
1!
s0x0 /
1,
s0xd +
#6940
0!
#6950
1!
s0xe +
s0x1 /
0,
b0010 .
#6960
0!
#6970
1!
s0x2 /
s0xf +
#6980
0!
#6990
1!
s0x10 +
s0x3 /
#7000
0!
#7010
1!
s0x4 /
s0x11 +
#7020
0!
#7030
1!
s0x12 +
s0x5 /
#7040
0!
#7050
1!
s0x6 /
s0x13 +
#7060
0!
#7070
1!
s0x14 +
s0x7 /
#7080
0!
#7090
1!
s0x8 /
s0x15 +
#7100
0!
#7110
1!
s0x16 +
s0x9 /
#7120
0!
#7130
1!
s0xa /
s0x17 +
#7140
0!
#7150
1!
s0x18 +
s0xb /
#7160
0!
#7170
1!
s0xc /
s0x19 +
#7180
0!
#7190
1!
s0x1a +
s0xd /
#7200
0!
#7210
1!
s0xe /
s0x1b +
#7220
0!
#7230
1!
s0x1c +
s0xf /
#7240
0!
#7250
1!
s0x10 /
s0x1d +
#7260
0!
#7270
1!
s0x1e +
s0x11 /
#7280
0!
#7290
1!
s0x12 /
s0x0 +
1(
#7300
0!
#7310
1!
s0x1 +
0(
b0011 *
b11111110 %
s0x13 /
#7320
0!
#7330
1!
s0x14 /
s0x2 +
#7340
0!
#7350
1!
s0x3 +
s0x15 /
#7360
0!
#7370
1!
s0x16 /
s0x4 +
#7380
0!
#7390
1!
s0x5 +
s0x17 /
#7400
0!
#7410
1!
s0x18 /
s0x6 +
#7420
0!
#7430
1!
s0x7 +
s0x19 /
#7440
0!
#7450
1!
s0x1a /
s0x8 +
#7460
0!
#7470
1!
s0x9 +
s0x1b /
#7480
0!
#7490
1!
s0x1c /
s0xa +
#7500
0!
#7510
1!
s0xb +
s0x1d /
#7520
0!
#7530
1!
s0x1e /
s0xc +
#7540
0!
#7550
1!
s0xd +
s0x0 /
1,
#7560
0!
#7570
1!
s0x1 /
0,
1"
b0011 .
s0xe +
#7580
0!
#7590
1!
s0xf +
s0x2 /
#7600
0!
#7610
1!
s0x3 /
s0x10 +
#7620
0!
#7630
1!
s0x11 +
s0x4 /
#7640
0!
#7650
1!
s0x5 /
s0x12 +
#7660
0!
#7670
1!
s0x13 +
s0x6 /
#7680
0!
#7690
1!
s0x7 /
s0x14 +
#7700
0!
#7710
1!
s0x15 +
s0x8 /
#7720
0!
#7730
1!
s0x9 /
s0x16 +
#7740
0!
#7750
1!
s0x17 +
s0xa /
#7760
0!
#7770
1!
s0xb /
s0x18 +
#7780
0!
#7790
1!
s0x19 +
s0xc /
#7800
0!
#7810
1!
s0xd /
s0x1a +
#7820
0!
#7830
1!
s0x1b +
s0xe /
#7840
0!
#7850
1!
s0xf /
s0x1c +
#7860
0!
#7870
1!
s0x1d +
s0x10 /
#7880
0!
#7890
1!
s0x11 /
s0x1e +
#7900
0!
#7910
1!
s0x0 +
1(
s0x12 /
#7920
0!
#7930
1!
s0x13 /
s0x1 +
0(
b0100 *
#7940
0!
#7950
1!
s0x2 +
s0x14 /
#7960
0!
#7970
1!
s0x15 /
s0x3 +
#7980
0!
#7990
1!
s0x4 +
s0x16 /
#8000
0!
#8010
1!
s0x17 /
s0x5 +
#8020
0!
#8030
1!
s0x6 +
s0x18 /
#8040
0!
#8050
1!
s0x19 /
s0x7 +
#8060
0!
#8070
1!
s0x8 +
s0x1a /
#8080
0!
#8090
1!
s0x1b /
s0x9 +
#8100
0!
#8110
1!
s0xa +
s0x1c /
#8120
0!
#8130
1!
s0x1d /
s0xb +
#8140
0!
#8150
1!
s0xc +
s0x1e /
#8160
0!
#8170
1!
s0x0 /
1,
s0xd +
#8180
0!
#8190
1!
s0xe +
s0x1 /
0,
0"
b0100 .
#8200
0!
#8210
1!
s0x2 /
s0xf +
#8220
0!
#8230
1!
s0x10 +
s0x3 /
#8240
0!
#8250
1!
s0x4 /
s0x11 +
#8260
0!
#8270
1!
s0x12 +
s0x5 /
#8280
0!
#8290
1!
s0x6 /
s0x13 +
#8300
0!
#8310
1!
s0x14 +
s0x7 /
#8320
0!
#8330
1!
s0x8 /
s0x15 +
#8340
0!
#8350
1!
s0x16 +
s0x9 /
#8360
0!
#8370
1!
s0xa /
s0x17 +
#8380
0!
#8390
1!
s0x18 +
s0xb /
#8400
0!
#8410
1!
s0xc /
s0x19 +
#8420
0!
#8430
1!
s0x1a +
s0xd /
#8440
0!
#8450
1!
s0xe /
s0x1b +
#8460
0!
#8470
1!
s0x1c +
s0xf /
#8480
0!
#8490
1!
s0x10 /
s0x1d +
#8500
0!
#8510
1!
s0x1e +
s0x11 /
#8520
0!
#8530
1!
s0x12 /
s0x0 +
1(
#8540
0!
#8550
1!
s0x1 +
0(
b0101 *
b11111010 %
s0x13 /
#8560
0!
#8570
1!
s0x14 /
s0x2 +
#8580
0!
#8590
1!
s0x3 +
s0x15 /
#8600
0!
#8610
1!
s0x16 /
s0x4 +
#8620
0!
#8630
1!
s0x5 +
s0x17 /
#8640
0!
#8650
1!
s0x18 /
s0x6 +
#8660
0!
#8670
1!
s0x7 +
s0x19 /
#8680
0!
#8690
1!
s0x1a /
s0x8 +
#8700
0!
#8710
1!
s0x9 +
s0x1b /
#8720
0!
#8730
1!
s0x1c /
s0xa +
#8740
0!
#8750
1!
s0xb +
s0x1d /
#8760
0!
#8770
1!
s0x1e /
s0xc +
#8780
0!
#8790
1!
s0xd +
s0x0 /
1,
#8800
0!
#8810
1!
s0x1 /
0,
1"
b0101 .
s0xe +
#8820
0!
#8830
1!
s0xf +
s0x2 /
#8840
0!
#8850
1!
s0x3 /
s0x10 +
#8860
0!
#8870
1!
s0x11 +
s0x4 /
#8880
0!
#8890
1!
s0x5 /
s0x12 +
#8900
0!
#8910
1!
s0x13 +
s0x6 /
#8920
0!
#8930
1!
s0x7 /
s0x14 +
#8940
0!
#8950
1!
s0x15 +
s0x8 /
#8960
0!
#8970
1!
s0x9 /
s0x16 +
#8980
0!
#8990
1!
s0x17 +
s0xa /
#9000
0!
#9010
1!
s0xb /
s0x18 +
#9020
0!
#9030
1!
s0x19 +
s0xc /
#9040
0!
#9050
1!
s0xd /
s0x1a +
#9060
0!
#9070
1!
s0x1b +
s0xe /
#9080
0!
#9090
1!
s0xf /
s0x1c +
#9100
0!
#9110
1!
s0x1d +
s0x10 /
#9120
0!
#9130
1!
s0x11 /
s0x1e +
#9140
0!
#9150
1!
s0x0 +
1(
s0x12 /
#9160
0!
#9170
1!
s0x13 /
s0x1 +
0(
b0110 *
#9180
0!
#9190
1!
s0x2 +
s0x14 /
#9200
0!
#9210
1!
s0x15 /
s0x3 +
#9220
0!
#9230
1!
s0x4 +
s0x16 /
#9240
0!
#9250
1!
s0x17 /
s0x5 +
#9260
0!
#9270
1!
s0x6 +
s0x18 /
#9280
0!
#9290
1!
s0x19 /
s0x7 +
#9300
0!
#9310
1!
s0x8 +
s0x1a /
#9320
0!
#9330
1!
s0x1b /
s0x9 +
#9340
0!
#9350
1!
s0xa +
s0x1c /
#9360
0!
#9370
1!
s0x1d /
s0xb +
#9380
0!
#9390
1!
s0xc +
s0x1e /
#9400
0!
#9410
1!
s0x0 /
1,
s0xd +
#9420
0!
#9430
1!
s0xe +
s0x1 /
0,
0"
b0110 .
#9440
0!
#9450
1!
s0x2 /
s0xf +
#9460
0!
#9470
1!
s0x10 +
s0x3 /
#9480
0!
#9490
1!
s0x4 /
s0x11 +
#9500
0!
#9510
1!
s0x12 +
s0x5 /
#9520
0!
#9530
1!
s0x6 /
s0x13 +
#9540
0!
#9550
1!
s0x14 +
s0x7 /
#9560
0!
#9570
1!
s0x8 /
s0x15 +
#9580
0!
#9590
1!
s0x16 +
s0x9 /
#9600
0!
#9610
1!
s0xa /
s0x17 +
#9620
0!
#9630
1!
s0x18 +
s0xb /
#9640
0!
#9650
1!
s0xc /
s0x19 +
#9660
0!
#9670
1!
s0x1a +
s0xd /
#9680
0!
#9690
1!
s0xe /
s0x1b +
#9700
0!
#9710
1!
s0x1c +
s0xf /
#9720
0!
#9730
1!
s0x10 /
s0x1d +
#9740
0!
#9750
1!
s0x1e +
s0x11 /
#9760
0!
#9770
1!
s0x12 /
s0x0 +
1(
#9780
0!
#9790
1!
s0x1 +
0(
b0111 *
b11101010 %
s0x13 /
#9800
0!
#9810
1!
s0x14 /
s0x2 +
#9820
0!
#9830
1!
s0x3 +
s0x15 /
#9840
0!
#9850
1!
s0x16 /
s0x4 +
#9860
0!
#9870
1!
s0x5 +
s0x17 /
#9880
0!
#9890
1!
s0x18 /
s0x6 +
#9900
0!
#9910
1!
s0x7 +
s0x19 /
#9920
0!
#9930
1!
s0x1a /
s0x8 +
#9940
0!
#9950
1!
s0x9 +
s0x1b /
#9960
0!
#9970
1!
s0x1c /
s0xa +
#9980
0!
#9990
1!
s0xb +
s0x1d /
#10000
0!
#10010
1!
s0x1e /
s0xc +
#10020
0!
#10030
1!
s0xd +
s0x0 /
1,
#10040
0!
#10050
1!
s0x1 /
0,
1"
b0111 .
s0xe +
#10060
0!
#10070
1!
s0xf +
s0x2 /
#10080
0!
#10090
1!
s0x3 /
s0x10 +
#10100
0!
#10110
1!
s0x11 +
s0x4 /
#10120
0!
#10130
1!
s0x5 /
s0x12 +
#10140
0!
#10150
1!
s0x13 +
s0x6 /
#10160
0!
#10170
1!
s0x7 /
s0x14 +
#10180
0!
#10190
1!
s0x15 +
s0x8 /
#10200
0!
#10210
1!
s0x9 /
s0x16 +
