hdl/src/myhdl/test_rs232tx.vcd
$date
    Sat Dec 31 13:28:35 2016
$end
$version
    MyHDL 0.9.0
$end
$timescale
    1ns
$end

$scope module test_rs232tx $end
$var reg 8 ! toTx $end
$var reg 1 " txd $end
$var reg 1 # txValid $end
$var reg 1 $ txReady $end
$var reg 1 % clk $end
$scope module rs232tx_inst $end
$var reg 1 & baudTick $end
$var reg 10 ' completeWord $end
$var reg 1 % clk $end
$var reg 4 ( currentBit $end
$var reg 1 " txd $end
$var reg 1 $ txReady $end
$var real 1 ) baudCnt $end
$var reg 8 ! toTx $end
$var reg 1 # txValid $end
$upscope $end
$upscope $end

$enddefinitions $end
$dumpvars
b10101010 !
0"
0#
0$
0%
0&
b0000000000 '
b0000 (
s0x0 )
$end
#10
1%
1$
#20
0%
#30
1%
#40
0%
#50
1%
#60
0%
#70
1%
#80
0%
1#
#90
1%
0$
b0001 (
b1101010100 '
#100
0%
0#
#110
1%
s0x1 )
#120
0%
#130
1%
s0x2 )
#140
0%
#150
1%
s0x3 )
#160
0%
#170
1%
s0x4 )
#180
0%
#190
1%
s0x5 )
#200
0%
#210
1%
s0x6 )
#220
0%
#230
1%
s0x7 )
#240
0%
#250
1%
s0x8 )
#260
0%
#270
1%
s0x9 )
#280
0%
#290
1%
s0xa )
#300
0%
#310
1%
s0xb )
#320
0%
#330
1%
s0xc )
#340
0%
#350
1%
s0xd )
#360
0%
#370
1%
s0xe )
#380
0%
#390
1%
s0xf )
#400
0%
#410
1%
s0x0 )
1&
#420
0%
#430
1%
s0x1 )
0&
b0010 (
#440
0%
#450
1%
s0x2 )
#460
0%
#470
1%
s0x3 )
#480
0%
#490
1%
s0x4 )
#500
0%
#510
1%
s0x5 )
#520
0%
#530
1%
s0x6 )
#540
0%
#550
1%
s0x7 )
#560
0%
#570
1%
s0x8 )
#580
0%
#590
1%
s0x9 )
#600
0%
#610
1%
s0xa )
#620
0%
#630
1%
s0xb )
#640
0%
#650
1%
s0xc )
#660
0%
#670
1%
s0xd )
#680
0%
#690
1%
s0xe )
#700
0%
#710
1%
s0xf )
#720
0%
#730
1%
s0x0 )
1&
#740
0%
#750
1%
s0x1 )
0&
1"
b0011 (
#760
0%
#770
1%
s0x2 )
#780
0%
#790
1%
s0x3 )
#800
0%
#810
1%
s0x4 )
#820
0%
#830
1%
s0x5 )
#840
0%
#850
1%
s0x6 )
#860
0%
#870
1%
s0x7 )
#880
0%
#890
1%
s0x8 )
#900
0%
#910
1%
s0x9 )
#920
0%
#930
1%
s0xa )
#940
0%
#950
1%
s0xb )
#960
0%
#970
1%
s0xc )
#980
0%
#990
1%
s0xd )
#1000
0%
#1010
1%
s0xe )
#1020
0%
#1030
1%
s0xf )
#1040
0%
#1050
1%
s0x0 )
1&
#1060
0%
#1070
1%
s0x1 )
0&
0"
b0100 (
#1080
0%
#1090
1%
s0x2 )
#1100
0%
#1110
1%
s0x3 )
#1120
0%
#1130
1%
s0x4 )
#1140
0%
#1150
1%
s0x5 )
#1160
0%
#1170
1%
s0x6 )
#1180
0%
#1190
1%
s0x7 )
#1200
0%
#1210
1%
s0x8 )
#1220
0%
#1230
1%
s0x9 )
#1240
0%
#1250
1%
s0xa )
#1260
0%
#1270
1%
s0xb )
#1280
0%
#1290
1%
s0xc )
#1300
0%
#1310
1%
s0xd )
#1320
0%
#1330
1%
s0xe )
#1340
0%
#1350
1%
s0xf )
#1360
0%
#1370
1%
s0x0 )
1&
#1380
0%
#1390
1%
s0x1 )
0&
1"
b0101 (
#1400
0%
#1410
1%
s0x2 )
#1420
0%
#1430
1%
s0x3 )
#1440
0%
#1450
1%
s0x4 )
#1460
0%
#1470
1%
s0x5 )
#1480
0%
#1490
1%
s0x6 )
#1500
0%
#1510
1%
s0x7 )
#1520
0%
#1530
1%
s0x8 )
#1540
0%
#1550
1%
s0x9 )
#1560
0%
#1570
1%
s0xa )
#1580
0%
#1590
1%
s0xb )
#1600
0%
#1610
1%
s0xc )
#1620
0%
#1630
1%
s0xd )
#1640
0%
#1650
1%
s0xe )
#1660
0%
#1670
1%
s0xf )
#1680
0%
#1690
1%
s0x0 )
1&
#1700
0%
#1710
1%
s0x1 )
0&
0"
b0110 (
#1720
0%
#1730
1%
s0x2 )
#1740
0%
#1750
1%
s0x3 )
#1760
0%
#1770
1%
s0x4 )
#1780
0%
#1790
1%
s0x5 )
#1800
0%
#1810
1%
s0x6 )
#1820
0%
#1830
1%
s0x7 )
#1840
0%
#1850
1%
s0x8 )
#1860
0%
#1870
1%
s0x9 )
#1880
0%
#1890
1%
s0xa )
#1900
0%
#1910
1%
s0xb )
#1920
0%
#1930
1%
s0xc )
#1940
0%
#1950
1%
s0xd )
#1960
0%
#1970
1%
s0xe )
#1980
0%
#1990
1%
s0xf )
#2000
0%
#2010
1%
s0x0 )
1&
#2020
0%
#2030
1%
s0x1 )
0&
1"
b0111 (
#2040
0%
#2050
1%
s0x2 )
#2060
0%
#2070
1%
s0x3 )
#2080
0%
#2090
1%
s0x4 )
#2100
0%
#2110
1%
s0x5 )
#2120
0%
#2130
1%
s0x6 )
#2140
0%
#2150
1%
s0x7 )
#2160
0%
#2170
1%
s0x8 )
#2180
0%
#2190
1%
s0x9 )
#2200
0%
#2210
1%
s0xa )
#2220
0%
#2230
1%
s0xb )
#2240
0%
#2250
1%
s0xc )
#2260
0%
#2270
1%
s0xd )
#2280
0%
#2290
1%
s0xe )
#2300
0%
#2310
1%
s0xf )
#2320
0%
#2330
1%
s0x0 )
1&
#2340
0%
#2350
1%
s0x1 )
0&
0"
b1000 (
#2360
0%
#2370
1%
s0x2 )
#2380
0%
#2390
1%
s0x3 )
#2400
0%
#2410
1%
s0x4 )
#2420
0%
#2430
1%
s0x5 )
#2440
0%
#2450
1%
s0x6 )
#2460
0%
#2470
1%
s0x7 )
#2480
0%
#2490
1%
s0x8 )
#2500
0%
#2510
1%
s0x9 )
#2520
0%
#2530
1%
s0xa )
#2540
0%
#2550
1%
s0xb )
#2560
0%
#2570
1%
s0xc )
#2580
0%
#2590
1%
s0xd )
#2600
0%
#2610
1%
s0xe )
#2620
0%
#2630
1%
s0xf )
#2640
0%
#2650
1%
s0x0 )
1&
#2660
0%
#2670
1%
s0x1 )
0&
1"
b1001 (
#2680
0%
#2690
1%
s0x2 )
#2700
0%
#2710
1%
s0x3 )
#2720
0%
#2730
1%
s0x4 )
#2740
0%
#2750
1%
s0x5 )
#2760
0%
#2770
1%
s0x6 )
#2780
0%
#2790
1%
s0x7 )
#2800
0%
#2810
1%
s0x8 )
#2820
0%
#2830
1%
s0x9 )
#2840
0%
#2850
1%
s0xa )
#2860
0%
#2870
1%
s0xb )
#2880
0%
#2890
1%
s0xc )
#2900
0%
#2910
1%
s0xd )
#2920
0%
#2930
1%
s0xe )
#2940
0%
#2950
1%
s0xf )
#2960
0%
#2970
1%
s0x0 )
1&
#2980
0%
#2990
1%
s0x1 )
0&
b1010 (
#3000
0%
#3010
1%
s0x2 )
#3020
0%
#3030
1%
s0x3 )
#3040
0%
#3050
1%
s0x4 )
#3060
0%
#3070
1%
s0x5 )
#3080
0%
#3090
1%
s0x6 )
#3100
0%
#3110
1%
s0x7 )
#3120
0%
#3130
1%
s0x8 )
#3140
0%
#3150
1%
s0x9 )
#3160
0%
#3170
1%
s0xa )
#3180
0%
#3190
1%
s0xb )
#3200
0%
#3210
1%
s0xc )
#3220
0%
#3230
1%
s0xd )
#3240
0%
#3250
1%
s0xe )
#3260
0%
#3270
1%
s0xf )
#3280
0%
#3290
1%
s0x0 )
1&
#3300
0%
#3310
1%
s0x1 )
0&
b0000 (
1$
#3320
0%
b00000000 !
1#
#3330
1%
0$
b0001 (
b1000000000 '
0"
#3340
0%
0#
#3350
1%
s0x2 )
#3360
0%
#3370
1%
s0x3 )
#3380
0%
#3390
1%
s0x4 )
#3400
0%
#3410
1%
s0x5 )
#3420
0%
#3430
1%
s0x6 )
#3440
0%
#3450
1%
s0x7 )
#3460
0%
#3470
1%
s0x8 )
#3480
0%
#3490
1%
s0x9 )
#3500
0%
#3510
1%
s0xa )
#3520
0%
#3530
1%
s0xb )
#3540
0%
#3550
1%
s0xc )
#3560
0%
#3570
1%
s0xd )
#3580
0%
#3590
1%
s0xe )
#3600
0%
#3610
1%
s0xf )
#3620
0%
#3630
1%
s0x0 )
1&
#3640
0%
#3650
1%
s0x1 )
0&
b0010 (
#3660
0%
#3670
1%
s0x2 )
#3680
0%
#3690
1%
s0x3 )
#3700
0%
#3710
1%
s0x4 )
#3720
0%
#3730
1%
s0x5 )
#3740
0%
#3750
1%
s0x6 )
#3760
0%
#3770
1%
s0x7 )
#3780
0%
#3790
1%
s0x8 )
#3800
0%
#3810
1%
s0x9 )
#3820
0%
#3830
1%
s0xa )
#3840
0%
#3850
1%
s0xb )
#3860
0%
#3870
1%
s0xc )
#3880
0%
#3890
1%
s0xd )
#3900
0%
#3910
1%
s0xe )
#3920
0%
#3930
1%
s0xf )
#3940
0%
#3950
1%
s0x0 )
1&
#3960
0%
#3970
1%
s0x1 )
0&
b0011 (
#3980
0%
#3990
1%
s0x2 )
#4000
0%
#4010
1%
s0x3 )
#4020
0%
#4030
1%
s0x4 )
#4040
0%
#4050
1%
s0x5 )
#4060
0%
#4070
1%
s0x6 )
#4080
0%
#4090
1%
s0x7 )
#4100
0%
#4110
1%
s0x8 )
#4120
0%
#4130
1%
s0x9 )
#4140
0%
#4150
1%
s0xa )
#4160
0%
#4170
1%
s0xb )
#4180
0%
#4190
1%
s0xc )
#4200
0%
#4210
1%
s0xd )
#4220
0%
#4230
1%
s0xe )
#4240
0%
#4250
1%
s0xf )
#4260
0%
#4270
1%
s0x0 )
1&
#4280
0%
#4290
1%
s0x1 )
0&
b0100 (
#4300
0%
#4310
1%
s0x2 )
#4320
0%
#4330
1%
s0x3 )
#4340
0%
#4350
1%
s0x4 )
#4360
0%
#4370
1%
s0x5 )
#4380
0%
#4390
1%
s0x6 )
#4400
0%
#4410
1%
s0x7 )
#4420
0%
#4430
1%
s0x8 )
#4440
0%
#4450
1%
s0x9 )
#4460
0%
#4470
1%
s0xa )
#4480
0%
#4490
1%
s0xb )
#4500
0%
#4510
1%
s0xc )
#4520
0%
#4530
1%
s0xd )
#4540
0%
#4550
1%
s0xe )
#4560
0%
#4570
1%
s0xf )
#4580
0%
#4590
1%
s0x0 )
1&
#4600
0%
#4610
1%
s0x1 )
0&
b0101 (
#4620
0%
#4630
1%
s0x2 )
#4640
0%
#4650
1%
s0x3 )
#4660
0%
#4670
1%
s0x4 )
#4680
0%
#4690
1%
s0x5 )
#4700
0%
#4710
1%
s0x6 )
#4720
0%
#4730
1%
s0x7 )
#4740
0%
#4750
1%
s0x8 )
#4760
0%
#4770
1%
s0x9 )
#4780
0%
#4790
1%
s0xa )
#4800
0%
#4810
1%
s0xb )
#4820
0%
#4830
1%
s0xc )
#4840
0%
#4850
1%
s0xd )
#4860
0%
#4870
1%
s0xe )
#4880
0%
#4890
1%
s0xf )
#4900
0%
#4910
1%
s0x0 )
1&
#4920
0%
#4930
1%
s0x1 )
0&
b0110 (
#4940
0%
#4950
1%
s0x2 )
#4960
0%
#4970
1%
s0x3 )
#4980
0%
#4990
1%
s0x4 )
#5000
0%
#5010
1%
s0x5 )
#5020
0%
#5030
1%
s0x6 )
#5040
0%
#5050
1%
s0x7 )
#5060
0%
#5070
1%
s0x8 )
#5080
0%
#5090
1%
s0x9 )
#5100
0%
#5110
1%
s0xa )
#5120
0%
#5130
1%
s0xb )
#5140
0%
#5150
1%
s0xc )
#5160
0%
#5170
1%
s0xd )
#5180
0%
#5190
1%
s0xe )
#5200
0%
#5210
1%
s0xf )
#5220
0%
#5230
1%
s0x0 )
1&
#5240
0%
#5250
1%
s0x1 )
0&
b0111 (
#5260
0%
#5270
1%
s0x2 )
#5280
0%
#5290
1%
s0x3 )
#5300
0%
#5310
1%
s0x4 )
#5320
0%
#5330
1%
s0x5 )
#5340
0%
#5350
1%
s0x6 )
#5360
0%
#5370
1%
s0x7 )
#5380
0%
#5390
1%
s0x8 )
#5400
0%
#5410
1%
s0x9 )
#5420
0%
#5430
1%
s0xa )
#5440
0%
#5450
1%
s0xb )
#5460
0%
#5470
1%
s0xc )
#5480
0%
#5490
1%
s0xd )
#5500
0%
#5510
1%
s0xe )
#5520
0%
#5530
1%
s0xf )
#5540
0%
#5550
1%
s0x0 )
1&
#5560
0%
#5570
1%
s0x1 )
0&
b1000 (
#5580
0%
#5590
1%
s0x2 )
#5600
0%
#5610
1%
s0x3 )
#5620
0%
#5630
1%
s0x4 )
#5640
0%
#5650
1%
s0x5 )
#5660
0%
#5670
1%
s0x6 )
#5680
0%
#5690
1%
s0x7 )
#5700
0%
#5710
1%
s0x8 )
#5720
0%
#5730
1%
s0x9 )
#5740
0%
#5750
1%
s0xa )
#5760
0%
#5770
1%
s0xb )
#5780
0%
#5790
1%
s0xc )
#5800
0%
#5810
1%
s0xd )
#5820
0%
#5830
1%
s0xe )
#5840
0%
#5850
1%
s0xf )
#5860
0%
#5870
1%
s0x0 )
1&
#5880
0%
#5890
1%
s0x1 )
0&
b1001 (
#5900
0%
#5910
1%
s0x2 )
#5920
0%
#5930
1%
s0x3 )
#5940
0%
#5950
1%
s0x4 )
#5960
0%
#5970
1%
s0x5 )
#5980
0%
#5990
1%
s0x6 )
#6000
0%
#6010
1%
s0x7 )
#6020
0%
#6030
1%
s0x8 )
#6040
0%
#6050
1%
s0x9 )
#6060
0%
#6070
1%
s0xa )
#6080
0%
#6090
1%
s0xb )
#6100
0%
#6110
1%
s0xc )
#6120
0%
#6130
1%
s0xd )
#6140
0%
#6150
1%
s0xe )
#6160
0%
#6170
1%
s0xf )
#6180
0%
#6190
1%
s0x0 )
1&
#6200
0%
#6210
1%
s0x1 )
0&
1"
b1010 (
#6220
0%
#6230
1%
s0x2 )
#6240
0%
#6250
1%
s0x3 )
#6260
0%
#6270
1%
s0x4 )
#6280
0%
#6290
1%
s0x5 )
#6300
0%
#6310
1%
s0x6 )
#6320
0%
#6330
1%
s0x7 )
#6340
0%
#6350
1%
s0x8 )
#6360
0%
#6370
1%
s0x9 )
#6380
0%
#6390
1%
s0xa )
#6400
0%
#6410
1%
s0xb )
#6420
0%
#6430
1%
s0xc )
#6440
0%
#6450
1%
s0xd )
#6460
0%
#6470
1%
s0xe )
#6480
0%
#6490
1%
s0xf )
#6500
0%
#6510
1%
s0x0 )
1&
#6520
0%
#6530
1%
s0x1 )
0&
b0000 (
1$
#6540
0%
b00000001 !
1#
#6550
1%
0$
b0001 (
b1000000010 '
0"
#6560
0%
0#
#6570
1%
s0x2 )
#6580
0%
#6590
1%
s0x3 )
#6600
0%
#6610
1%
s0x4 )
#6620
0%
#6630
1%
s0x5 )
#6640
0%
#6650
1%
s0x6 )
#6660
0%
#6670
1%
s0x7 )
#6680
0%
#6690
1%
s0x8 )
#6700
0%
#6710
1%
s0x9 )
#6720
0%
#6730
1%
s0xa )
#6740
0%
#6750
1%
s0xb )
#6760
0%
#6770
1%
s0xc )
#6780
0%
#6790
1%
s0xd )
#6800
0%
#6810
1%
s0xe )
#6820
0%
#6830
1%
s0xf )
#6840
0%
#6850
1%
s0x0 )
1&
#6860
0%
#6870
1%
s0x1 )
0&
1"
b0010 (
#6880
0%
#6890
1%
s0x2 )
#6900
0%
#6910
1%
s0x3 )
#6920
0%
#6930
1%
s0x4 )
#6940
0%
#6950
1%
s0x5 )
#6960
0%
#6970
1%
s0x6 )
#6980
0%
#6990
1%
s0x7 )
#7000
0%
#7010
1%
s0x8 )
#7020
0%
#7030
1%
s0x9 )
#7040
0%
#7050
1%
s0xa )
#7060
0%
#7070
1%
s0xb )
#7080
0%
#7090
1%
s0xc )
#7100
0%
#7110
1%
s0xd )
#7120
0%
#7130
1%
s0xe )
#7140
0%
#7150
1%
s0xf )
#7160
0%
#7170
1%
s0x0 )
1&
#7180
0%
#7190
1%
s0x1 )
0&
0"
b0011 (
#7200
0%
#7210
1%
s0x2 )
#7220
0%
#7230
1%
s0x3 )
#7240
0%
#7250
1%
s0x4 )
#7260
0%
#7270
1%
s0x5 )
#7280
0%
#7290
1%
s0x6 )
#7300
0%
#7310
1%
s0x7 )
#7320
0%
#7330
1%
s0x8 )
#7340
0%
#7350
1%
s0x9 )
#7360
0%
#7370
1%
s0xa )
#7380
0%
#7390
1%
s0xb )
#7400
0%
#7410
1%
s0xc )
#7420
0%
#7430
1%
s0xd )
#7440
0%
#7450
1%
s0xe )
#7460
0%
#7470
1%
s0xf )
#7480
0%
#7490
1%
s0x0 )
1&
#7500
0%
#7510
1%
s0x1 )
0&
b0100 (
#7520
0%
#7530
1%
s0x2 )
#7540
0%
#7550
1%
s0x3 )
#7560
0%
#7570
1%
s0x4 )
#7580
0%
#7590
1%
s0x5 )
#7600
0%
#7610
1%
s0x6 )
#7620
0%
#7630
1%
s0x7 )
#7640
0%
#7650
1%
s0x8 )
#7660
0%
#7670
1%
s0x9 )
#7680
0%
#7690
1%
s0xa )
#7700
0%
#7710
1%
s0xb )
#7720
0%
#7730
1%
s0xc )
#7740
0%
#7750
1%
s0xd )
#7760
0%
#7770
1%
s0xe )
#7780
0%
#7790
1%
s0xf )
#7800
0%
#7810
1%
s0x0 )
1&
#7820
0%
#7830
1%
s0x1 )
0&
b0101 (
#7840
0%
#7850
1%
s0x2 )
#7860
0%
#7870
1%
s0x3 )
#7880
0%
#7890
1%
s0x4 )
#7900
0%
#7910
1%
s0x5 )
#7920
0%
#7930
1%
s0x6 )
#7940
0%
#7950
1%
s0x7 )
#7960
0%
#7970
1%
s0x8 )
#7980
0%
#7990
1%
s0x9 )
#8000
0%
#8010
1%
s0xa )
#8020
0%
#8030
1%
s0xb )
#8040
0%
#8050
1%
s0xc )
#8060
0%
#8070
1%
s0xd )
#8080
0%
#8090
1%
s0xe )
#8100
0%
#8110
1%
s0xf )
#8120
0%
#8130
1%
s0x0 )
1&
#8140
0%
#8150
1%
s0x1 )
0&
b0110 (
#8160
0%
#8170
1%
s0x2 )
#8180
0%
#8190
1%
s0x3 )
#8200
0%
#8210
1%
s0x4 )
#8220
0%
#8230
1%
s0x5 )
#8240
0%
#8250
1%
s0x6 )
#8260
0%
#8270
1%
s0x7 )
#8280
0%
#8290
1%
s0x8 )
#8300
0%
#8310
1%
s0x9 )
#8320
0%
#8330
1%
s0xa )
#8340
0%
#8350
1%
s0xb )
#8360
0%
#8370
1%
s0xc )
#8380
0%
#8390
1%
s0xd )
#8400
0%
#8410
1%
s0xe )
#8420
0%
#8430
1%
s0xf )
#8440
0%
#8450
1%
s0x0 )
1&
#8460
0%
#8470
1%
s0x1 )
0&
b0111 (
#8480
0%
#8490
1%
s0x2 )
#8500
0%
#8510
1%
s0x3 )
#8520
0%
#8530
1%
s0x4 )
#8540
0%
#8550
1%
s0x5 )
#8560
0%
#8570
1%
s0x6 )
#8580
0%
#8590
1%
s0x7 )
#8600
0%
#8610
1%
s0x8 )
#8620
0%
#8630
1%
s0x9 )
#8640
0%
#8650
1%
s0xa )
#8660
0%
#8670
1%
s0xb )
#8680
0%
#8690
1%
s0xc )
#8700
0%
#8710
1%
s0xd )
#8720
0%
#8730
1%
s0xe )
#8740
0%
#8750
1%
s0xf )
#8760
0%
#8770
1%
s0x0 )
1&
#8780
0%
#8790
1%
s0x1 )
0&
b1000 (
#8800
0%
#8810
1%
s0x2 )
#8820
0%
#8830
1%
s0x3 )
#8840
0%
#8850
1%
s0x4 )
#8860
0%
#8870
1%
s0x5 )
#8880
0%
#8890
1%
s0x6 )
#8900
0%
#8910
1%
s0x7 )
#8920
0%
#8930
1%
s0x8 )
#8940
0%
#8950
1%
s0x9 )
#8960
0%
#8970
1%
s0xa )
#8980
0%
#8990
1%
s0xb )
#9000
0%
#9010
1%
s0xc )
#9020
0%
#9030
1%
s0xd )
#9040
0%
#9050
1%
s0xe )
#9060
0%
#9070
1%
s0xf )
#9080
0%
#9090
1%
s0x0 )
1&
#9100
0%
#9110
1%
s0x1 )
0&
b1001 (
#9120
0%
#9130
1%
s0x2 )
#9140
0%
#9150
1%
s0x3 )
#9160
0%
#9170
1%
s0x4 )
#9180
0%
#9190
1%
s0x5 )
#9200
0%
#9210
1%
s0x6 )
#9220
0%
#9230
1%
s0x7 )
#9240
0%
#9250
1%
s0x8 )
#9260
0%
#9270
1%
s0x9 )
#9280
0%
#9290
1%
s0xa )
#9300
0%
#9310
1%
s0xb )
#9320
0%
#9330
1%
s0xc )
#9340
0%
#9350
1%
s0xd )
#9360
0%
#9370
1%
s0xe )
#9380
0%
#9390
1%
s0xf )
#9400
0%
#9410
1%
s0x0 )
1&
#9420
0%
#9430
1%
s0x1 )
0&
1"
b1010 (
#9440
0%
#9450
1%
s0x2 )
#9460
0%
#9470
1%
s0x3 )
#9480
0%
#9490
1%
s0x4 )
#9500
0%
#9510
1%
s0x5 )
#9520
0%
#9530
1%
s0x6 )
#9540
0%
#9550
1%
s0x7 )
#9560
0%
#9570
1%
s0x8 )
#9580
0%
#9590
1%
s0x9 )
#9600
0%
#9610
1%
s0xa )
#9620
0%
#9630
1%
s0xb )
#9640
0%
#9650
1%
s0xc )
#9660
0%
#9670
1%
s0xd )
#9680
0%
#9690
1%
s0xe )
#9700
0%
#9710
1%
s0xf )
#9720
0%
#9730
1%
s0x0 )
1&
#9740
0%
#9750
1%
s0x1 )
0&
b0000 (
1$
#9760
0%
b01010101 !
1#
#9770
1%
0$
b0001 (
b1010101010 '
0"
#9780
0%
0#
#9790
1%
s0x2 )
#9800
0%
#9810
1%
s0x3 )
#9820
0%
#9830
1%
s0x4 )
#9840
0%
#9850
1%
s0x5 )
#9860
0%
#9870
1%
s0x6 )
#9880
0%
#9890
1%
s0x7 )
#9900
0%
#9910
1%
s0x8 )
#9920
0%
#9930
1%
s0x9 )
#9940
0%
#9950
1%
s0xa )
#9960
0%
#9970
1%
s0xb )
#9980
0%
#9990
1%
s0xc )
#10000
0%
#10010
1%
s0xd )
#10020
0%
#10030
1%
s0xe )
#10040
0%
#10050
1%
s0xf )
#10060
0%
#10070
1%
s0x0 )
1&
#10080
0%
#10090
1%
s0x1 )
0&
1"
b0010 (
#10100
0%
#10110
1%
s0x2 )
#10120
0%
#10130
1%
s0x3 )
#10140
0%
#10150
1%
s0x4 )
#10160
0%
#10170
1%
s0x5 )
#10180
0%
#10190
1%
s0x6 )
#10200
0%
#10210
1%
s0x7 )
#10220
0%
#10230
1%
s0x8 )
#10240
0%
#10250
1%
s0x9 )
#10260
0%
#10270
1%
s0xa )
#10280
0%
#10290
1%
s0xb )
#10300
0%
#10310
1%
s0xc )
#10320
0%
#10330
1%
s0xd )
#10340
0%
#10350
1%
s0xe )
#10360
0%
#10370
1%
s0xf )
#10380
0%
#10390
1%
s0x0 )
1&
#10400
0%
#10410
1%
s0x1 )
0&
0"
b0011 (
#10420
0%
#10430
1%
s0x2 )
#10440
0%
#10450
1%
s0x3 )
#10460
0%
#10470
1%
s0x4 )
#10480
0%
#10490
1%
s0x5 )
#10500
0%
#10510
1%
s0x6 )
#10520
0%
#10530
1%
s0x7 )
#10540
0%
#10550
1%
s0x8 )
#10560
0%
#10570
1%
s0x9 )
#10580
0%
#10590
1%
s0xa )
#10600
0%
#10610
1%
s0xb )
#10620
0%
#10630
1%
s0xc )
#10640
0%
#10650
1%
s0xd )
#10660
0%
#10670
1%
s0xe )
#10680
0%
#10690
1%
s0xf )
#10700
0%
#10710
1%
s0x0 )
1&
#10720
0%
#10730
1%
s0x1 )
0&
1"
b0100 (
#10740
0%
#10750
1%
s0x2 )
#10760
0%
#10770
1%
s0x3 )
#10780
0%
#10790
1%
s0x4 )
#10800
0%
#10810
1%
s0x5 )
#10820
0%
#10830
1%
s0x6 )
#10840
0%
#10850
1%
s0x7 )
#10860
0%
#10870
1%
s0x8 )
#10880
0%
#10890
1%
s0x9 )
#10900
0%
#10910
1%
s0xa )
#10920
0%
#10930
1%
s0xb )
#10940
0%
#10950
1%
s0xc )
#10960
0%
#10970
1%
s0xd )
#10980
0%
#10990
1%
s0xe )
#11000
0%
#11010
1%
s0xf )
#11020
0%
#11030
1%
s0x0 )
1&
#11040
0%
#11050
1%
s0x1 )
0&
0"
b0101 (
#11060
0%
#11070
1%
s0x2 )
#11080
0%
#11090
1%
s0x3 )
#11100
0%
#11110
1%
s0x4 )
#11120
0%
#11130
1%
s0x5 )
#11140
0%
#11150
1%
s0x6 )
#11160
0%
#11170
1%
s0x7 )
#11180
0%
#11190
1%
s0x8 )
#11200
0%
#11210
1%
s0x9 )
#11220
0%
#11230
1%
s0xa )
#11240
0%
#11250
1%
s0xb )
#11260
0%
#11270
1%
s0xc )
#11280
0%
#11290
1%
s0xd )
#11300
0%
#11310
1%
s0xe )
#11320
0%
#11330
1%
s0xf )
#11340
0%
#11350
1%
s0x0 )
1&
#11360
0%
#11370
1%
s0x1 )
0&
1"
b0110 (
#11380
0%
#11390
1%
s0x2 )
#11400
0%
#11410
1%
s0x3 )
#11420
0%
#11430
1%
s0x4 )
#11440
0%
#11450
1%
s0x5 )
#11460
0%
#11470
1%
s0x6 )
#11480
0%
#11490
1%
s0x7 )
#11500
0%
#11510
1%
s0x8 )
#11520
0%
#11530
1%
s0x9 )
#11540
0%
#11550
1%
s0xa )
#11560
0%
#11570
1%
s0xb )
#11580
0%
#11590
1%
s0xc )
#11600
0%
#11610
1%
s0xd )
#11620
0%
#11630
1%
s0xe )
#11640
0%
#11650
1%
s0xf )
#11660
0%
#11670
1%
s0x0 )
1&
#11680
0%
#11690
1%
s0x1 )
0&
0"
b0111 (
#11700
0%
#11710
1%
s0x2 )
#11720
0%
#11730
1%
s0x3 )
#11740
0%
#11750
1%
s0x4 )
#11760
0%
#11770
1%
s0x5 )
#11780
0%
#11790
1%
s0x6 )
#11800
0%
#11810
1%
s0x7 )
#11820
0%
#11830
1%
s0x8 )
#11840
0%
#11850
1%
s0x9 )
#11860
0%
#11870
1%
s0xa )
#11880
0%
#11890
1%
s0xb )
#11900
0%
#11910
1%
s0xc )
#11920
0%
#11930
1%
s0xd )
#11940
0%
#11950
1%
s0xe )
#11960
0%
#11970
1%
s0xf )
#11980
0%
#11990
1%
s0x0 )
1&
#12000
0%
#12010
1%
s0x1 )
0&
1"
b1000 (
#12020
0%
#12030
1%
s0x2 )
#12040
0%
#12050
1%
s0x3 )
#12060
0%
#12070
1%
s0x4 )
#12080
0%
#12090
1%
s0x5 )
#12100
0%
#12110
1%
s0x6 )
#12120
0%
#12130
1%
s0x7 )
#12140
0%
#12150
1%
s0x8 )
#12160
0%
#12170
1%
s0x9 )
#12180
0%
#12190
1%
s0xa )
#12200
0%
#12210
1%
s0xb )
#12220
0%
#12230
1%
s0xc )
#12240
0%
#12250
1%
s0xd )
#12260
0%
#12270
1%
s0xe )
#12280
0%
#12290
1%
s0xf )
#12300
0%
#12310
1%
s0x0 )
1&
#12320
0%
#12330
1%
s0x1 )
0&
0"
b1001 (
#12340
0%
#12350
1%
s0x2 )
#12360
0%
#12370
1%
s0x3 )
#12380
0%
#12390
1%
s0x4 )
#12400
0%
#12410
1%
s0x5 )
#12420
0%
#12430
1%
s0x6 )
#12440
0%
#12450
1%
s0x7 )
#12460
0%
#12470
1%
s0x8 )
#12480
0%
#12490
1%
s0x9 )
#12500
0%
#12510
1%
s0xa )
#12520
0%
#12530
1%
s0xb )
#12540
0%
#12550
1%
s0xc )
#12560
0%
#12570
1%
s0xd )
#12580
0%
#12590
1%
s0xe )
#12600
0%
#12610
1%
s0xf )
#12620
0%
#12630
1%
s0x0 )
1&
#12640
0%
#12650
1%
s0x1 )
0&
1"
b1010 (
#12660
0%
#12670
1%
s0x2 )
#12680
0%
#12690
1%
s0x3 )
#12700
0%
#12710
1%
s0x4 )
#12720
0%
#12730
1%
s0x5 )
#12740
0%
#12750
1%
s0x6 )
#12760
0%
#12770
1%
s0x7 )
#12780
0%
#12790
1%
s0x8 )
#12800
0%
#12810
1%
s0x9 )
#12820
0%
#12830
1%
s0xa )
#12840
0%
#12850
1%
s0xb )
#12860
0%
#12870
1%
s0xc )
#12880
0%
#12890
1%
s0xd )
#12900
0%
#12910
1%
s0xe )
#12920
0%
#12930
1%
s0xf )
#12940
0%
#12950
1%
s0x0 )
1&
#12960
0%
#12970
1%
s0x1 )
0&
b0000 (
1$
#12980
0%
b11111111 !
1#
#12990
1%
0$
b0001 (
b1111111110 '
0"
#13000
0%
0#
#13010
1%
s0x2 )
#13020
0%
#13030
1%
s0x3 )
#13040
0%
#13050
1%
s0x4 )
#13060
0%
#13070
1%
s0x5 )
#13080
0%
#13090
1%
s0x6 )
#13100
0%
#13110
1%
s0x7 )
#13120
0%
#13130
1%
s0x8 )
#13140
0%
#13150
1%
s0x9 )
#13160
0%
#13170
1%
s0xa )
#13180
0%
#13190
1%
s0xb )
#13200
0%
#13210
1%
s0xc )
#13220
0%
#13230
1%
s0xd )
#13240
0%
#13250
1%
s0xe )
#13260
0%
#13270
1%
s0xf )
#13280
0%
#13290
1%
s0x0 )
1&
#13300
0%
#13310
1%
s0x1 )
0&
1"
b0010 (
#13320
0%
#13330
1%
s0x2 )
#13340
0%
#13350
1%
s0x3 )
#13360
0%
#13370
1%
s0x4 )
#13380
0%
#13390
1%
s0x5 )
#13400
0%
#13410
1%
s0x6 )
#13420
0%
#13430
1%
s0x7 )
#13440
0%
#13450
1%
s0x8 )
#13460
0%
#13470
1%
s0x9 )
#13480
0%
#13490
1%
s0xa )
#13500
0%
#13510
1%
s0xb )
#13520
0%
#13530
1%
s0xc )
#13540
0%
#13550
1%
s0xd )
#13560
0%
#13570
1%
s0xe )
#13580
0%
#13590
1%
s0xf )
#13600
0%
#13610
1%
s0x0 )
1&
